{
	"Unit4 Utils": {
		"prefix": "utils",
		"body": [
			"Unit4Utils.$0"
		],
		"description": "Unit4 Utils"
	},
	"Customised For": {
		"prefix": "forc",
		"body": [
			"for (int ${1:i} = ${2:0}; $1 <$5 ${3:${4:arr}.Length}; $1++)",
			"{",
			"    $6",
			"}"
		],
		"description": "Customised For"
	},
	"Customised Reversed For": {
		"prefix": "forrc",
		"body": [
			"for (int ${1:i} = ${2:arr.Length - 1}; $1 >= ${3:0}; $1--)",
			"{",
			"    $4",
			"}"
		],
		"description": "Customised Reversed For"
	},
	"Array Sum": {
		"prefix": [
			"arrsum",
			"sumarr"
		],
		"body": [
			"int ${1:sum} = 0;",
			"for (int ${2:i} = ${3:0}; $2 <$5 ${4:arr.Length}; $2++)",
			"{",
			"    $1 += arr[$2];$6",
			"}",
			"${7:$1}"
		],
		"description": "Array Sum"
	},
	"Clone Array": {
		"prefix": [
			"arrclone",
			"arrcopy",
			"copyarr",
			"clonearr"
		],
		"body": [
			"${1:arr1} = new ${2:int}[${3:arr2}.Length];",
			"for (int ${4:i} = ${5:0}; $4 < ${6:$3.Length}; $4++)",
			"{",
			"    $1[$4] = $3[$4];",
			"}"
		],
		"description": "Clone Array"
	},
	"Clone Array In Constructor": {
		"prefix": [
			"arrclonector",
			"arrcopyctor",
			"copyarrctor",
			"clonearrctor"
		],
		"body": [
			"this.${1:arr} = new ${2:int}[${3:$1}.Length];",
			"for (int ${4:i} = 0; $4 < $3.Length; $4++)",
			"{",
			"    this.$1[$4] = $3[$4];",
			"}"
		],
		"description": "Clone Array In Constructor"
	},
	"Array Count": {
		"prefix": [
			"arrcount",
			"countarr"
		],
		"body": [
			"int ${1:count} = 0;",
			"for (int ${2:i} = ${3:0}; $2 <$6 ${4:${5:arr}.Length}; $2++)",
			"{",
			"    if($5[$2]$7)",
			"        $1++;",
			"}",
			"${8:$1}"
		],
		"description": "Array Count"
	},
	"Break Number": {
		"prefix": "breaknum",
		"body": [
			"while (${1:num} > 0)",
			"{",
			"    $2",
			"    $1 /= 10;",
			"}"
		],
		"description": "Break Number"
	},
	"If Null": {
		"prefix": "ifn",
		"body": [
			"if ($1 == null)",
			"{",
			"    $2",
			"}"
		],
		"description": "If Null"
	},
	"If Not Null": {
		"prefix": "inn",
		"body": [
			"if ($1 != null)",
			"{",
			"    $2",
			"}"
		],
		"description": "If Not Null"
	},
	"Console.WriteLine": {
		"prefix": "cw",
		"body": [
			"Console.WriteLine(${1:$TM_SELECTED_TEXT});"
		],
		"description": "Console.WriteLine"
	},
	"Console.Write": {
		"prefix": "cwr",
		"body": [
			"Console.Write(${1:$TM_SELECTED_TEXT});"
		],
		"description": "Console.Write"
	},
	"Console.ReadLine": {
		"prefix": "cr",
		"body": [
			"Console.ReadLine()"
		],
		"description": "Console.WriteLine"
	},
	"Int.Parse": {
		"prefix": "ip",
		"body": [
			"${2:int} ${1:num} = $2.Parse(Console.ReadLine());"
		],
		"description": "Int.Parse"
	},
	"Input Value": {
		"prefix": "input",
		"body": [
			"Console.Write(\"$1=\");",
			"${2:int} ${1:num} = $2.Parse(Console.ReadLine());"
		],
		"description": "Input Value"
	},
	"Input String": {
		"prefix": "inputs",
		"body": [
			"Console.Write(\"$1=\");",
			"string ${1:str} = Console.ReadLine();"
		],
		"description": "Input String"
	},
	"Generic Function": {
		"prefix": "generic",
		"body": [
			"public static ${5:$3<T>} ${1:Func}<T>($2${3:Node}<T> ${4:lst})",
			"{",
			"    $0",
			"}"
		],
		"description": "Generic Function"
	},
	"Function": {
		"prefix": "func",
		"body": [
			"public static ${3:void} ${1:Func}($2)",
			"{",
			"    $0",
			"}"
		],
		"description": "Function"
	},
	"While Stack": {
		"prefix": "ws",
		"body": [
			"while (!${1:st}.IsEmpty())",
			"{",
			"    $0",
			"    ${2:temp}.Push($1.Pop());",
			"}"
		],
		"description": "While Stack"
	},
	"While Stack Reverse": {
		"prefix": "wsr",
		"body": [
			"while (!${1:temp}.IsEmpty())",
			"{",
			"    ${2:st}.Push($1.Pop());",
			"}"
		],
		"description": "While Stack Reverse"
	},
	"While Queue": {
		"prefix": "wq",
		"body": [
			"while (!${1:q}.IsEmpty())",
			"{",
			"    $0",
			"    ${2:temp}.Insert($1.Remove());",
			"}"
		],
		"description": "While Queue"
	},
	"While Queue Reverse": {
		"prefix": "wqr",
		"body": [
			"while (!${1:temp}.IsEmpty())",
			"{",
			"    ${2:q}.Insert($1.Remove());",
			"}"
		],
		"description": "While Queue"
	},
	"Iterate Over List": {
		"prefix": "wp",
		"body": [
			"while (${1:pos} != null)",
			"{",
			"    $2",
			"    $1 = $1.GetNext();",
			"}",
			"$0"
		],
		"description": "Iterate Over List"
	},
	"Last Pos": {
		"prefix": "lastpos",
		"body": [
			"while (${1:pos} != null && $1.HasNext())",
			"{",
			"    $1 = $1.GetNext();",
			"}",
			"$0"
		],
		"description": "Last Pos"
	},
	"Prepend to List": {
		"prefix": "prepend",
		"body": [
			"${1:lst} = new Node<${2:int}>(${3:val}, $1);"
		],
		"description": "Prepend to List"
	},
	"New Node": {
		"prefix": "node",
		"body": [
			"new Node<${1:int}>(${2:val})"
		],
		"description": "New Node"
	},
	"Get Next Node": {
		"prefix": [
			"gnext",
			"next",
			"getnext"
		],
		"body": [
			"${1:pos} = $1.GetNext();"
		],
		"description": "Get Next Node"
	},
	"Set Next Node": {
		"prefix": [
			"snext",
			"setnext"
		],
		"body": [
			"${1:pos}.SetNext($2);"
		],
		"description": "Set Next Node"
	},
	"Init Pos": {
		"prefix": "pos",
		"body": [
			"Node<${2:int}> ${1:pos} = ${3:lst};",
			"$0"
		],
		"description": "Init Pos"
	},
	"Temp Queue": {
		"prefix": "tempq",
		"body": [
			"Queue<${2:T}> ${1:temp} = new Queue<$2>();"
		],
		"description": "Temp Queue"
	},
	"Temp Stack": {
		"prefix": "temps",
		"body": [
			"Stack<${2:T}> ${1:temp} = new Stack<$2>();"
		],
		"description": "Temp Stack"
	},
	"Method": {
		"prefix": "method",
		"body": [
			"public ${3:void} ${1:Method}($2)",
			"{",
			"    $4",
			"}"
		],
		"description": "Method"
	},
	"Private Method": {
		"prefix": "pmethod",
		"body": [
			"private ${3:void} ${1:Method}($2)",
			"{",
			"    $4",
			"}"
		],
		"description": "Private Method"
	},
	"Is Leaf": {
		"prefix": [
			"leaf",
			"isleaf"
		],
		"body": [
			"!${1:bt}.HasLeft() && !$1.HasRight()"
		],
		"description": "Is Leaf"
	},
	"Has One Child": {
		"prefix": [
			"onechild",
			"hasonechild"
		],
		"body": [
			"${1:bt}.HasLeft() != $1.HasRight()"
		],
		"description": "Has One Child"
	},
	"Get Value": {
		"prefix": "value",
		"body": [
			"${1:bt}.GetValue()"
		],
		"description": "Get Value"
	},
	"Has Left Child": {
		"prefix": "hasleft",
		"body": [
			"${1:bt}.HasLeft()"
		],
		"description": "Has Left Child"
	},
	"Has Right Child": {
		"prefix": "hasright",
		"body": [
			"${1:bt}.HasRight()"
		],
		"description": "Has Right Child"
	},
	"Left Child": {
		"prefix": "left",
		"body": [
			"${1:bt}.GetLeft()"
		],
		"description": "Left Child"
	},
	"Right Child": {
		"prefix": "right",
		"body": [
			"${1:bt}.GetRight()"
		],
		"description": "Right Child"
	},
	"Exists Recursion": {
		"prefix": "exrec",
		"body": [
			"public static bool ${1:ExistsRec}($2)",
			"{",
			"    if($3)",
			"        return false;",
			"    if($4)",
			"        return true;",
			"    return ${5:$1($6) || $1($7)};",
			"}"
		],
		"description": "Exists Recursion"
	},
	"All Recursion": {
		"prefix": "allrec",
		"body": [
			"public static bool ${1:AllRec}($2)",
			"{",
			"    if($3)",
			"        return true;",
			"    if($4)",
			"        return false;",
			"    return ${5:$1($6) && $1($7)};",
			"}"
		],
		"description": "All Recursion"
	},
	"New Bin Node": {
		"prefix": [
			"bin",
			"binnode",
			"newbinnode"
		],
		"body": [
			"BinNode<${1:int}> ${2:bt} = new BinNode<$1>($3);",
			"$0"
		],
		"description": "New Bin Node"
	},
	"Exists Recursion Binary Tree": {
		"prefix": "exrecbt",
		"body": [
			"public static bool ${1:ExistsRec}(${2:BinNode<${3:int}> ${4:bt}})",
			"{",
			"    if(${5:$4 == null})",
			"        return false;",
			"    if(${6:$4.GetValue()})",
			"        return true;",
			"    return ${7:$1(${8:$4.GetLeft()}) || $1(${9:$4.GetRight()})};",
			"}"
		],
		"description": "Exists Recursion Binary Tree"
	},
	"All Recursion Binary Tree": {
		"prefix": "allrecbt",
		"body": [
			"public static bool ${1:AllRec}(${2:BinNode<${3:int}> ${4:bt}})",
			"{",
			"    if(${5:$4 == null})",
			"        return true;",
			"    if(${6:$4.GetValue()})",
			"        return false;",
			"    return ${7:$1(${8:$4.GetLeft()}) && $1(${9:$4.GetRight()})};",
			"}"
		],
		"description": "All Recursion Binary Tree"
	},
	"Void Recursion Binary Tree": {
		"prefix": "voidrecbt",
		"body": [
			"public static void ${1:Rec}(${2:BinNode<${3:int}> ${4:bt}})",
			"{",
			"    if (${5:$4 != null})",
			"    {",
			"        $6",
			"        $1(${7:$4.GetLeft()});",
			"        $1(${8:$4.GetRight()});",
			"    }",
			"}"
		],
		"description": "Void Recursion Binary Tree"
	},
	"PreOrder Recursion Binary Tree": {
		"prefix": [
			"prerecbt",
			"preordrecbt"
		],
		"body": [
			"public static void ${1:PreOrder}(${2:BinNode<${3:int}> ${4:bt}})",
			"{",
			"    if (${5:$4 != null})",
			"    {",
			"        $6",
			"        $1(${7:$4.GetLeft()});",
			"        $1(${8:$4.GetRight()});",
			"    }",
			"}"
		],
		"description": "PreOrder Recursion Binary Tree"
	},
	"InOrder Recursion Binary Tree": {
		"prefix": [
			"inrecbt",
			"inordrecbt"
		],
		"body": [
			"public static void ${1:InOrder}(${2:BinNode<${3:int}> ${4:bt}})",
			"{",
			"    if (${5:$4 != null})",
			"    {",
			"        $1(${7:$4.GetLeft()});",
			"        $6",
			"        $1(${8:$4.GetRight()});",
			"    }",
			"}"
		],
		"description": "InOrder Recursion Binary Tree"
	},
	"PostOrder Recursion Binary Tree": {
		"prefix": [
			"postrecbt",
			"postordrecbt"
		],
		"body": [
			"public static void ${1:PostOrder}(${2:BinNode<${3:int}> ${4:bt}})",
			"{",
			"    if (${5:$4 != null})",
			"    {",
			"        $1(${7:$4.GetLeft()});",
			"        $1(${8:$4.GetRight()});",
			"        $6",
			"    }",
			"}"
		],
		"description": "PostOrder Recursion Binary Tree"
	},
	"Generic Void Recursion Binary Tree": {
		"prefix": "genvoidrecbt",
		"body": [
			"public static void ${1:Rec}<T>(${2:BinNode<T> ${4:bt}})",
			"{",
			"    if (${5:$4 != null})",
			"    {",
			"        $6",
			"        $1(${7:$4.GetLeft()});",
			"        $1(${8:$4.GetRight()});",
			"    }",
			"}"
		],
		"description": "Generic Void Recursion Binary Tree"
	},
	"While Input": {
		"prefix": "whileinput",
		"body": [
			"$TM_SELECTED_TEXT",
			"while ($1)",
			"{",
			"    $2",
			"    ${TM_SELECTED_TEXT/(?<=\\s)(\\w+\\s+)(?=\\w+\\s*=)//g}",
			"}",
			"$0"
		],
		"description": "While Input"
	},
	"Data Member": {
		"prefix": [
			"dm",
			"datamember"
		],
		"body": [
			"private ${1:string} ${2:id};"
		],
		"description": "Data Member"
	},
	"Copy Constructor": {
		"prefix": "copyctor",
		"body": [
			"public $TM_FILENAME_BASE($TM_FILENAME_BASE ${1:${TM_FILENAME_BASE/(.*)/${1:/downcase}/}})",
			"{",
			"    this.${2:id} = $1.$2;",
			"    this.${3:id} = $1.$3;",
			"    this.${4:id} = $1.$4;",
			"}"
		],
		"description": "Copy Constructor"
	},
	"Copy Data Member": {
		"prefix": [
			"cpdm",
			"copydatamember"
		],
		"body": [
			"this.${1:id} = ${2:${TM_FILENAME_BASE/(.*)/${1:/downcase}/}}.$1;"
		],
		"description": "Copy Data Member"
	},
	"Getter": {
		"prefix": "get",
		"body": [
			"public ${2:string} Get${1/(.*)/${1:/capitalize}/}()",
			"{",
			"    return this.${1:id};",
			"}"
		],
		"description": "Getter"
	},
	"Setter": {
		"prefix": "set",
		"body": [
			"public void Set${1/(.*)/${1:/capitalize}/}(${2:string} $1)",
			"{",
			"    this.${1:id} = $1;",
			"}"
		],
		"description": "Setter"
	},
	"Getter And Setter": {
		"prefix": "getset",
		"body": [
			"public ${2:string} Get${1/(.*)/${1:/capitalize}/}()",
			"{",
			"    return this.${1:id};",
			"}",
			"public void Set${1/(.*)/${1:/capitalize}/}(${2:string} $1)",
			"{",
			"    this.$1 = $1;",
			"}"
		],
		"description": "Getter And Setter"
	},
	"ToString Method": {
		"prefix": "tostring",
		"body": [
			"public override string ToString()",
			"{",
			"    return ${1:$\"\"};",
			"}"
		],
		"description": "ToString Method"
	},
	"Class Program And SVM": {
		"prefix": [
			"clasvm",
			"init",
			"program"
		],
		"body": [
			"    class Program",
			"    {",
			"        static void Main(string[] args)",
			"        {",
			"            $0",
			"        }",
			"    }"
		],
		"description": "Class Program And SVM"
	},
	"New Class File": {
		"prefix": "classfile",
		"body": [
			"using System;",
			"",
			"namespace $WORKSPACE_NAME",
			"{",
			"    class ${1:$TM_FILENAME_BASE}",
			"    {",
			"        $0",
			"    }",
			"}"
		],
		"description": "Class Program And SVM"
	}
}